…
``` r
#由大到小排序
salaryAll<-salaryAll[order(salaryAll$大學薪資比值,decreasing = T),]
View(salaryAll)
salaryAll
```

    ## # A tibble: 140 x 28
    ##    年度.x 大職業別 `經常性薪資-薪資.x`~ `經常性薪資-女/男.x`~ `國中及以下-薪資.x`~
    ##     <dbl> <chr>               <dbl> <chr>            <chr>           
    ##  1   2015 專業、科學及技~            23546 98.47            22700           
    ##  2   2015 教育業服務及銷~            23678 94.93            22333           
    ##  3   2015 不動產業技術員~            27938 98.99            —               
    ##  4   2015 住宿及餐飲業服~            22765 99.33            22212           
    ##  5   2015 藝術、娛樂及休~            23504 98.73            —               
    ##  6   2015 金融及保險業技~            28026 94.61            —               
    ##  7   2015 教育業              24730 96.64            21556           
    ##  8   2015 教育業事務支援~            23317 98.21            —               
    ##  9   2015 用水供應及污染~            33277 98.13            —               
    ## 10   2015 教育業專業人員~            27535 96.96            —               
    ## # ... with 130 more rows, and 23 more variables: `國中及以下-女/男.x` <chr>,
    ## #   `高中或高職-薪資.x` <chr>, `高中或高職-女/男.x` <chr>, `專科-薪資.x` <chr>,
    ## #   `專科-女/男.x` <chr>, `大學-薪資.x` <dbl>, `大學-女/男.x` <chr>,
    ## #   `研究所及以上-薪資` <chr>, `研究所及以上-女/男` <chr>, 年度.y <dbl>,
    ## #   `經常性薪資-薪資.y` <chr>, `經常性薪資-女/男.y` <chr>,
    ## #   `國中及以下-薪資.y` <chr>, `國中及以下-女/男.y` <chr>,
    ## #   `高中或高職-薪資.y` <chr>, `高中或高職-女/男.y` <chr>, `專科-薪資.y` <chr>,
    ## #   `專科-女/男.y` <chr>, `大學-薪資.y` <dbl>, `大學-女/男.y` <chr>,
    ## #   `研究所-薪資` <chr>, `研究所-女/男` <chr>, 大學薪資比值 <dbl>
…
### 提高超過5%的的職業有哪些?

``` r
add5pc<-salaryAll[salaryAll$大學薪資比值>1.05&complete.cases(salaryAll$大學薪資比值),]
View(add5pc)
add5pc
```

    ## # A tibble: 53 x 28
    ##    年度.x 大職業別 `經常性薪資-薪資.x`~ `經常性薪資-女/男.x`~ `國中及以下-薪資.x`~
    ##     <dbl> <chr>               <dbl> <chr>            <chr>           
    ##  1   2015 專業、科學及技~            23546 98.47            22700           
    ##  2   2015 教育業服務及銷~            23678 94.93            22333           
    ##  3   2015 不動產業技術員~            27938 98.99            —               
    ##  4   2015 住宿及餐飲業服~            22765 99.33            22212           
    ##  5   2015 藝術、娛樂及休~            23504 98.73            —               
    ##  6   2015 金融及保險業技~            28026 94.61            —               
    ##  7   2015 教育業              24730 96.64            21556           
    ##  8   2015 教育業事務支援~            23317 98.21            —               
    ##  9   2015 用水供應及污染~            33277 98.13            —               
    ## 10   2015 教育業專業人員~            27535 96.96            —               
    ## # ... with 43 more rows, and 23 more variables: `國中及以下-女/男.x` <chr>,
    ## #   `高中或高職-薪資.x` <chr>, `高中或高職-女/男.x` <chr>, `專科-薪資.x` <chr>,
    ## #   `專科-女/男.x` <chr>, `大學-薪資.x` <dbl>, `大學-女/男.x` <chr>,
    ## #   `研究所及以上-薪資` <chr>, `研究所及以上-女/男` <chr>, 年度.y <dbl>,
    ## #   `經常性薪資-薪資.y` <chr>, `經常性薪資-女/男.y` <chr>,
    ## #   `國中及以下-薪資.y` <chr>, `國中及以下-女/男.y` <chr>,
    ## #   `高中或高職-薪資.y` <chr>, `高中或高職-女/男.y` <chr>, `專科-薪資.y` <chr>,
    ## #   `專科-女/男.y` <chr>, `大學-薪資.y` <dbl>, `大學-女/男.y` <chr>,
    ## #   `研究所-薪資` <chr>, `研究所-女/男` <chr>, 大學薪資比值 <dbl>
…
